Ajaccio	41.917	8.717
Amsterdam	52.350	4.900
Arras	50.283	2.767
Athenes	38.000	23.733
Auckland	-36.853	174.780
Auxerre	47.800	3.583
Avignon	43.933	4.800
Bastia	42.683	9.433
Berlin	52.467	13.350
Bordeaux	44.833	-0.567
Brazilia	-15.780	-47.930
Brest	48.383	-4.500
Bruxelles	50.850	4.350
Cannes	43.550	7.000
Cape-Town	-33.934	18.411
Cardiff	51.500	-3.217
Cherbourg	49.633	-1.617
Dunkerque	51.033	2.383
Edinburgh	55.950	-3.217
Geneve	46.217	6.150
Helsinki	60.133	25.000
Jerusalem 	31.783 	35.217
Las-Vegas	36.111	-115.171
Lens	50.433	2.833
Lille	50.650	3.083
Lisbonne	38.733	-9.133
Londres	51.500	-0.167
Luxembourg	49.617	6.133
Lyon	45.767	4.833
Madrid	40.417	-3.717
Marseille	43.300	5.367
Metz	49.117	6.183
Monaco	43.733	7.417
Moscou	55.700	37.550
New-York	40.817	-73.955	
Nice	43.700	7.267
Nimes	43.500	4.350
Orsay	48.7	2.1833
Oslo	59.933	10.750
Oxford	51.767	-1.250
Paris	48.833	2.333
Pekin	39.917	116.433 
Quebec	46.833	-71.250
Rome	41.883	12.500
Strasbourg	48.583	7.750
Sydney	-33.917	151.167
Tokyo	35.667	139.750
Toronto	43.700	-79.417
Toulon	43.117	5.917
Toulouse	43.617	1.450
Versailles	48.800	2.133
Washington	38.891	-77.005
Wellington	-41.319	174.780
